
The diagonalized matrix 
  1.823  0.000  0.000  0.000  0.000  0.000
  0.000 -8.787  0.000  0.000  0.000  0.000
  0.000  0.000 -6.806  0.000  0.000  0.000
  0.000  0.000  0.000  0.023  0.000  0.000
  0.000  0.000  0.000  0.000 -5.199  0.000
  0.000  0.000  0.000  0.000  0.000  1.052


Vector u=
7.30741
1.70669
-7.12838
-7.03202
3.78876
2.62623


Eigenvalues=
-8.71979
-5.69512
-3.63506
0.767873
1.22437
175.991


Eigenvalues GLS=
-8.71979
-5.69512
-3.63506
0.767873
1.22437
175.991
